[
    {
        "path": "files/",
        "filename": "unsplash-10.jpg"
    },
    {
        "path": "files/",
        "filename": "download.jpg"
    },
    {
        "path": "files/",
        "filename": "unsplash-11.jpg"
    },
    {
        "path": "files/",
        "filename": "unsplash-12.jpg"
    },
    {
        "path": "files/",
        "filename": "unsplash-13.jpg"
    },
    {
        "path": "files/",
        "filename": "unsplash-14.jpg"
    }
]